INDEX VERSION 1.3+C:\Users\samuelf\Documents\servletsbegin\.metadata\.plugins\org.eclipse.wst.jsdt.core\indexes
605197069.index
3235864936.index
1784568453.index
3002804087.index
3748691962.index
2531417263.index
1146448296.index
1930723163.index
451945507.index
2122975686.index
703734807.index
2888489349.index
3237585637.index
989001626.index
1664293962.index
1950757252.index
